%YAML 1.1
%TAG !u! tag:unity3d.com,2011:
--- !u!21 &2100000
Material:
  serializedVersion: 6
  m_ObjectHideFlags: 0
  m_PrefabParentObject: {fileID: 0}
  m_PrefabInternal: {fileID: 0}
  m_Name: wall02b
  m_Shader: {fileID: 4800000, guid: 759c5e1ebf096104db6051614530eb72, type: 3}
  m_ShaderKeywords: S_OCCLUSION S_RECEIVE_SHADOWS S_SPECULAR_METALLIC _EMISSION _NORMALMAP
    _PARALLAXMAP
  m_LightmapFlags: 1
  m_EnableInstancingVariants: 0
  m_DoubleSidedGI: 0
  m_CustomRenderQueue: -1
  stringTagMap:
    OriginalShader: Standard
  disabledShaderPasses: []
  m_SavedProperties:
    serializedVersion: 3
    m_TexEnvs:
    - _BumpMap:
        m_Texture: {fileID: 2800000, guid: 740c2b80bb35f7041a68404e69635409, type: 3}
        m_Scale: {x: 1, y: 1}
        m_Offset: {x: 0, y: 0}
    - _Cube:
        m_Texture: {fileID: 0}
        m_Scale: {x: 1, y: 1}
        m_Offset: {x: 0, y: 0}
    - _DetailAlbedoMap:
        m_Texture: {fileID: 0}
        m_Scale: {x: 1, y: 1}
        m_Offset: {x: 0, y: 0}
    - _DetailMask:
        m_Texture: {fileID: 0}
        m_Scale: {x: 1, y: 1}
        m_Offset: {x: 0, y: 0}
    - _DetailNormalMap:
        m_Texture: {fileID: 0}
        m_Scale: {x: 1, y: 1}
        m_Offset: {x: 0, y: 0}
    - _EmissionMap:
        m_Texture: {fileID: 0}
        m_Scale: {x: 1, y: 1}
        m_Offset: {x: 0, y: 0}
    - _MainTex:
        m_Texture: {fileID: 2800000, guid: 84d82b1957e37324d8886cc745758cfb, type: 3}
        m_Scale: {x: 1, y: 1}
        m_Offset: {x: 0, y: 0}
    - _MetallicGlossMap:
        m_Texture: {fileID: 0}
        m_Scale: {x: 1, y: 1}
        m_Offset: {x: 0, y: 0}
    - _OcclusionMap:
        m_Texture: {fileID: 2800000, guid: ae1f381ab9580a64cb74f06d3ba74331, type: 3}
        m_Scale: {x: 1, y: 1}
        m_Offset: {x: 0, y: 0}
    - _ParallaxMap:
        m_Texture: {fileID: 2800000, guid: ba06ddaf985c33b46804aca4b0c958b2, type: 3}
        m_Scale: {x: 1, y: 1}
        m_Offset: {x: 0, y: 0}
    - _SpecGlossMap:
        m_Texture: {fileID: 0}
        m_Scale: {x: 1, y: 1}
        m_Offset: {x: 0, y: 0}
    - g_tOverrideLightmap:
        m_Texture: {fileID: 0}
        m_Scale: {x: 1, y: 1}
        m_Offset: {x: 0, y: 0}
    m_Floats:
    - _BumpScale: 1
    - _Cull: 2
    - _Cutoff: 0.5
    - _DetailNormalMapScale: 1
    - _DstBlend: 0
    - _EmissionScaleUI: 0
    - _FogMultiplier: 1
    - _GlossMapScale: 1
    - _Glossiness: 0.2
    - _GlossyReflections: 1
    - _Metallic: 0
    - _Mode: 0
    - _OcclusionStrength: 0.7
    - _OcclusionStrengthDirectDiffuse: 1
    - _OcclusionStrengthDirectSpecular: 1
    - _OcclusionStrengthIndirectDiffuse: 1
    - _OcclusionStrengthIndirectSpecular: 1
    - _Parallax: 0.0302
    - _Shininess: 1
    - _SmoothnessTextureChannel: 0
    - _SpecularHighlights: 1
    - _SpecularMode: 2
    - _SrcBlend: 1
    - _UVSec: 0
    - _ZWrite: 1
    - g_bReceiveShadows: 1
    - g_bRenderBackfaces: 0
    - g_bUnlit: 0
    - g_bWorldAlignedTexture: 0
    - g_flCubeMapScalar: 1
    - g_flReflectanceBias: 0
    - g_flReflectanceMax: 1
    - g_flReflectanceMin: 0
    - g_flReflectanceScale: 1
    m_Colors:
    - _Color: {r: 0.91791046, g: 0.91791046, b: 0.91791046, a: 1}
    - _EmissionColor: {r: 0, g: 0, b: 0, a: 0}
    - _EmissionColorUI: {r: 1, g: 1, b: 1, a: 1}
    - _ReflectColor: {r: 1, g: 1, b: 1, a: 0.5}
    - _SpecColor: {r: 0.38805968, g: 0.38805968, b: 0.38805968, a: 1}
    - g_vWorldAlignedNormalTangentU: {r: -1, g: 0, b: 0, a: 0}
    - g_vWorldAlignedNormalTangentV: {r: 0, g: 0, b: 1, a: 0}
    - g_vWorldAlignedTextureNormal: {r: 0, g: 1, b: 0, a: 0}
    - g_vWorldAlignedTexturePosition: {r: 0, g: 0, b: 0, a: 0}
    - g_vWorldAlignedTextureSize: {r: 1, g: 1, b: 1, a: 0}
--- !u!1002 &2100001
EditorExtensionImpl:
  serializedVersion: 6
